<?xml version="1.0" encoding="UTF-8" standalone="no"?>
<svg
   xmlns:dc="http://purl.org/dc/elements/1.1/"
   xmlns:cc="http://creativecommons.org/ns#"
   xmlns:rdf="http://www.w3.org/1999/02/22-rdf-syntax-ns#"
   xmlns:svg="http://www.w3.org/2000/svg"
   xmlns="http://www.w3.org/2000/svg"
   xmlns:sodipodi="http://sodipodi.sourceforge.net/DTD/sodipodi-0.dtd"
   xmlns:inkscape="http://www.inkscape.org/namespaces/inkscape"
   width="900"
   height="900"
   viewBox="0 0 900 900"
   version="1.1"
   id="svg1187"
   sodipodi:docname="logo-white.svg"
   inkscape:version="1.0 (4035a4f, 2020-05-01)">
  <metadata
     id="metadata1193">
    <rdf:RDF>
      <cc:Work
         rdf:about="">
        <dc:format>image/svg+xml</dc:format>
        <dc:type
           rdf:resource="http://purl.org/dc/dcmitype/StillImage" />
        <dc:title></dc:title>
      </cc:Work>
    </rdf:RDF>
  </metadata>
  <defs
     id="defs1191" />
  <sodipodi:namedview
     inkscape:document-rotation="0"
     pagecolor="#000000"
     bordercolor="#666666"
     borderopacity="1"
     objecttolerance="10"
     gridtolerance="10"
     guidetolerance="10"
     inkscape:pageopacity="0"
     inkscape:pageshadow="2"
     inkscape:window-width="1440"
     inkscape:window-height="874"
     id="namedview1189"
     showgrid="false"
     inkscape:zoom="0.38616071"
     inkscape:cx="534.75145"
     inkscape:cy="479.07514"
     inkscape:window-x="0"
     inkscape:window-y="26"
     inkscape:window-maximized="0"
     inkscape:current-layer="svg1187" />
  <path
     d="M 600,900 H 100 C 73.333352,900 46.666669,890.6667 27.999999,872 9.3333303,853.3333 0,826.6667 0,800 V 100 C 0,73.333342 9.3333313,46.66667 28,28 46.66667,9.33334 73.333329,0 100,0 h 500 c 175.83842,0 300,241.05366 300,450 0,208.94634 -96.35835,450 -300,450 z m 8.18499,-150.64301 v -64 c 0,-9.3333 -3,-17 -9,-23 -6.00003,-6 -13.66673,-9 -23.00003,-9 H 141.50289 c -9.33333,0 -17,3 -23,9 -6,6 -9,13.6667 -9,23 v 64 c 0,9.3333 3,17 9,23 6,6 13.66667,9 23,9 h 434.68207 c 9.3333,0 17,-3 23.00003,-9 6,-6 9,-13.6667 9,-23 z m 124.3005,-256 v -64 c 0,-9.3333 -3,-17 -9,-23 -6,-6 -13.6667,-9 -23,-9 h -558.9826 c -9.33333,0 -17,3 -23,9 -6,6 -9,13.6667 -9,23 v 64 c 0,9.3333 3,17 9,23 6,6 13.66667,9 23,9 h 558.9826 c 9.3333,0 17,-3 23,-9 6,-6 9,-13.6667 9,-23 z m -124.3005,-256 v -64 c 0,-9.33333 -3,-17 -9,-23 -6.00003,-6 -13.66673,-9 -23.00003,-9 H 141.50289 c -9.33333,0 -17,3 -23,9 -6,6 -9,13.66667 -9,23 v 64 c 0,9.33333 3,17 9,23 6,6 13.66667,9 23,9 h 434.68207 c 9.3333,0 17,-3 23.00003,-9 6,-6 9,-13.66667 9,-23 z"
     id="path1185"
     sodipodi:nodetypes="zsssssszzzsssssssssssssssssssssssssssssssssssssss"
     style="fill:#ffffff;fill-opacity:1" />
</svg>
